…
```
## file last updated:  2019-09-26 10:28:02
```

```
## file min/max dates: 1999-09-01 / 2019-09-30
```

```r
weather_df
```

```
## # A tibble: 1,095 x 6
##    name           id          date        prcp  tmax  tmin
##    <chr>          <chr>       <date>     <dbl> <dbl> <dbl>
##  1 CentralPark_NY USW00094728 2017-01-01     0   8.9   4.4
##  2 CentralPark_NY USW00094728 2017-01-02    53   5     2.8
##  3 CentralPark_NY USW00094728 2017-01-03   147   6.1   3.9
##  4 CentralPark_NY USW00094728 2017-01-04     0  11.1   1.1
##  5 CentralPark_NY USW00094728 2017-01-05     0   1.1  -2.7
##  6 CentralPark_NY USW00094728 2017-01-06    13   0.6  -3.8
##  7 CentralPark_NY USW00094728 2017-01-07    81  -3.2  -6.6
##  8 CentralPark_NY USW00094728 2017-01-08     0  -3.8  -8.8
##  9 CentralPark_NY USW00094728 2017-01-09     0  -4.9  -9.9
## 10 CentralPark_NY USW00094728 2017-01-10     0   7.8  -6  
## # … with 1,085 more rows
```
…
```
## Warning: Removed 15 rows containing missing values (geom_point).
```

<img src="Viz-and-Eda_files/figure-html/unnamed-chunk-2-1.png" width="672" />

saving initial plots 


```r
weather_df %>% filter(name == "CentralPark_NY")
```

```
## # A tibble: 365 x 6
##    name           id          date        prcp  tmax  tmin
##    <chr>          <chr>       <date>     <dbl> <dbl> <dbl>
##  1 CentralPark_NY USW00094728 2017-01-01     0   8.9   4.4
##  2 CentralPark_NY USW00094728 2017-01-02    53   5     2.8
##  3 CentralPark_NY USW00094728 2017-01-03   147   6.1   3.9
##  4 CentralPark_NY USW00094728 2017-01-04     0  11.1   1.1
##  5 CentralPark_NY USW00094728 2017-01-05     0   1.1  -2.7
##  6 CentralPark_NY USW00094728 2017-01-06    13   0.6  -3.8
##  7 CentralPark_NY USW00094728 2017-01-07    81  -3.2  -6.6
##  8 CentralPark_NY USW00094728 2017-01-08     0  -3.8  -8.8
##  9 CentralPark_NY USW00094728 2017-01-09     0  -4.9  -9.9
## 10 CentralPark_NY USW00094728 2017-01-10     0   7.8  -6  
## # … with 355 more rows
```
…
